Voronoi_Practice
…
## 
##  Column specification 
## cols(
##   `Date/Time` = col_character(),
##   Lat = col_double(),
##   Lon = col_double(),
##   Base = col_character()
## )

df

## # A tibble: 43 x 2
##      Lat   Lon
##    <dbl> <dbl>
##  1  40.7 -74.0
##  2  40.7 -74.0
##  3  40.7 -74.1
##  4  40.7 -74.0
##  5  40.7 -74.0
##  6  40.7 -74.0
##  7  40.7 -74.0
##  8  40.7 -74.0
##  9  40.7 -74.0
## 10  40.7 -74.0
## #  with 33 more rows
…
## 
##  Column specification 
## cols(
##   `Date/Time` = col_character(),
##   Lat = col_double(),
##   Lon = col_double(),
##   Base = col_character()
## )

df

## # A tibble: 25 x 4
##    `Date/Time`       Lat   Lon Base  
##    <chr>           <dbl> <dbl> <chr> 
##  1 1/30/2022 14:41  40.7 -74.0 B02598
##  2 1/24/2022 21:12  40.7 -73.4 B02598
##  3 1/17/2022 22:57  40.6 -73.8 B02617
##  4 1/5/2022 16:57   40.8 -74.0 B02617
##  5 1/26/2022 8:25   40.8 -74.0 B02598
##  6 1/13/2022 13:18  40.8 -74.0 B02617
##  7 1/19/2022 6:48   40.6 -73.8 B02617
##  8 1/30/2022 1:18   40.7 -74.0 B02682
##  9 1/13/2022 19:20  40.7 -74.0 B02617
## 10 1/21/2022 7:34   40.8 -74.0 B02617
## #  with 15 more rows
…
